; Engine configuration file.
; It's best edited using the editor UI and not directly,
; since the parameters that go here are not all obvious.
;
; Format:
;   [section] ; section goes between []
;   param=value ; assign values to parameters

config_version=4

[application]

config/name="sweep"
config/icon="res://icon.png"

[display]

window/size/width=640
window/size/height=360

[editor_plugins]

enabled=PoolStringArray( "res://addons/sweep/plugin.cfg" )

[gui]

common/drop_mouse_on_gui_input_disabled=true

[physics]

common/enable_pause_aware_picking=true

[rendering]

environment/default_environment="res://default_env.tres"
